8, 03:00, 12:00
9, 03:00, 12:30
10, 03:00, 12:30
11, 03:30, 11:30
11, 01:00, 17:00
12, 05:00, 11:30
12, 19:00, 22:00
13, 06:30, 13:00
14, 02:30, 12:15
15, 02:00, 11:30
16, 02:00, 13:00
16, 15:30, 19:00
17, 04:00, 11:00
17, 20:30, 23:45
18, 05:00, 12:15
19, 05:00, 12:15
20, 04:00, 15:00
21, 04:00, 12:30
22, 06:00, 12:00
23, 06:00, 13:00
24, 06:00, 13:00
25, 03:00, 12:00
26, 19:00, 20:30
26, 23:30, 09:30
28, 05:00, 10:00
28, 13:00, 17:00
29, 03:00, 11:00
30, 02:30, 11:00